-123.9393425, 49.0870774
-123.9393640, 49.0870774
-123.9390528, 49.0868595
-123.9385808, 49.0860726
-123.9390421, 49.0858969
-123.9361024, 49.0820954
-123.9308345, 49.0788979
-123.9299762, 49.0787152
-123.9300084, 49.0780827
-123.9295578, 49.0773940
-123.9289677, 49.0776118
-123.9288068, 49.0778438
-123.9276481, 49.0770496
-123.9271653, 49.0772605
-123.9289355, 49.0785044
-123.9289248, 49.0791087
-123.9278090, 49.0796499
-123.9277875, 49.0800434
-123.9281952, 49.0799310
-123.9293003, 49.0797272
-123.9289033, 49.0810624
-123.9300191, 49.0816175
-123.9309847, 49.0818916
-123.9318430, 49.0826365
-123.9320469, 49.0838873
-123.9321649, 49.0847234
-123.9315534, 49.0849202
-123.9310062, 49.0839645
-123.9293218, 49.0837327
-123.9291072, 49.0843018
-123.9300299, 49.0855034
-123.9291501, 49.0861990
-123.9296544, 49.0865996
-123.9306843, 49.0858969
-123.9309204, 49.0869017
-123.9317036, 49.0868666
-123.9321005, 49.0863817
-123.9314139, 49.0858196
-123.9321756, 49.0854683
-123.9323688, 49.0860023
-123.9333344, 49.0860796
-123.9331412, 49.0857212
-123.9329159, 49.0852013
-123.9342141, 49.0844845
-123.9346218, 49.0848710
-123.9364994, 49.0861569
-123.9384627, 49.0867260
-123.9389241, 49.0870211
-123.9393425, 49.0870774

{
  "coordinates": [
    [
      [
        -123.9393425,
        49.0870774
      ],
      [
        -123.939364,
        49.0870774
      ],
      [
        -123.9390528,
        49.0868595
      ],
      [
        -123.9385808,
        49.0860726
      ],
      [
        -123.9390421,
        49.0858969
      ],
      [
        -123.9361024,
        49.0820954
      ],
      [
        -123.9308345,
        49.0788979
      ],
      [
        -123.9299762,
        49.0787152
      ],
      [
        -123.9300084,
        49.0780827
      ],
      [
        -123.9295578,
        49.077394
      ],
      [
        -123.9289677,
        49.0776118
      ],
      [
        -123.9288068,
        49.0778438
      ],
      [
        -123.9276481,
        49.0770496
      ],
      [
        -123.9271653,
        49.0772605
      ],
      [
        -123.9289355,
        49.0785044
      ],
      [
        -123.9289248,
        49.0791087
      ],
      [
        -123.927809,
        49.0796499
      ],
      [
        -123.9277875,
        49.0800434
      ],
      [
        -123.9281952,
        49.079931
      ],
      [
        -123.9293003,
        49.0797272
      ],
      [
        -123.9289033,
        49.0810624
      ],
      [
        -123.9300191,
        49.0816175
      ],
      [
        -123.9309847,
        49.0818916
      ],
      [
        -123.931843,
        49.0826365
      ],
      [
        -123.9320469,
        49.0838873
      ],
      [
        -123.9321649,
        49.0847234
      ],
      [
        -123.9315534,
        49.0849202
      ],
      [
        -123.9310062,
        49.0839645
      ],
      [
        -123.9293218,
        49.0837327
      ],
      [
        -123.9291072,
        49.0843018
      ],
      [
        -123.9300299,
        49.0855034
      ],
      [
        -123.9291501,
        49.086199
      ],
      [
        -123.9296544,
        49.0865996
      ],
      [
        -123.9306843,
        49.0858969
      ],
      [
        -123.9309204,
        49.0869017
      ],
      [
        -123.9317036,
        49.0868666
      ],
      [
        -123.9321005,
        49.0863817
      ],
      [
        -123.9314139,
        49.0858196
      ],
      [
        -123.9321756,
        49.0854683
      ],
      [
        -123.9323688,
        49.0860023
      ],
      [
        -123.9333344,
        49.0860796
      ],
      [
        -123.9331412,
        49.0857212
      ],
      [
        -123.9329159,
        49.0852013
      ],
      [
        -123.9342141,
        49.0844845
      ],
      [
        -123.9346218,
        49.084871
      ],
      [
        -123.9364994,
        49.0861569
      ],
      [
        -123.9384627,
        49.086726
      ],
      [
        -123.9389241,
        49.0870211
      ],
      [
        -123.9393425,
        49.0870774
      ]
    ]
  ],
  "type": "Polygon"
}
