-123.9452970, 49.1943042
-123.9451575, 49.1939817
-123.9452541, 49.1938485
-123.9452326, 49.1936451
-123.9452541, 49.1934558
-123.9450395, 49.1932525
-123.9446962, 49.1930983
-123.9434838, 49.1913524
-123.9430976, 49.1903988
-123.9433122, 49.1896555
-123.9432263, 49.1890385
-123.9427114, 49.1886879
-123.9423895, 49.1890665
-123.9423466, 49.1881970
-123.9430761, 49.1877903
-123.9418960, 49.1874117
-123.9411235, 49.1878464
-123.9413166, 49.1885336
-123.9407587, 49.1891647
-123.9403296, 49.1897397
-123.9407587, 49.1903006
-123.9416385, 49.1907774
-123.9424539, 49.1915347
-123.9429045, 49.1924181
-123.9437199, 49.1935400
-123.9434838, 49.1938905
-123.9437628, 49.1942692
-123.9445782, 49.1940308
-123.9448357, 49.1941710
-123.9451575, 49.1943393
-123.9452970, 49.1943042

{
  "coordinates": [
    [
      [
        -123.945297,
        49.1943042
      ],
      [
        -123.9451575,
        49.1939817
      ],
      [
        -123.9452541,
        49.1938485
      ],
      [
        -123.9452326,
        49.1936451
      ],
      [
        -123.9452541,
        49.1934558
      ],
      [
        -123.9450395,
        49.1932525
      ],
      [
        -123.9446962,
        49.1930983
      ],
      [
        -123.9434838,
        49.1913524
      ],
      [
        -123.9430976,
        49.1903988
      ],
      [
        -123.9433122,
        49.1896555
      ],
      [
        -123.9432263,
        49.1890385
      ],
      [
        -123.9427114,
        49.1886879
      ],
      [
        -123.9423895,
        49.1890665
      ],
      [
        -123.9423466,
        49.188197
      ],
      [
        -123.9430761,
        49.1877903
      ],
      [
        -123.941896,
        49.1874117
      ],
      [
        -123.9411235,
        49.1878464
      ],
      [
        -123.9413166,
        49.1885336
      ],
      [
        -123.9407587,
        49.1891647
      ],
      [
        -123.9403296,
        49.1897397
      ],
      [
        -123.9407587,
        49.1903006
      ],
      [
        -123.9416385,
        49.1907774
      ],
      [
        -123.9424539,
        49.1915347
      ],
      [
        -123.9429045,
        49.1924181
      ],
      [
        -123.9437199,
        49.19354
      ],
      [
        -123.9434838,
        49.1938905
      ],
      [
        -123.9437628,
        49.1942692
      ],
      [
        -123.9445782,
        49.1940308
      ],
      [
        -123.9448357,
        49.194171
      ],
      [
        -123.9451575,
        49.1943393
      ],
      [
        -123.945297,
        49.1943042
      ]
    ]
  ],
  "type": "Polygon"
}
