-124.0804589, 49.2498722
-124.0804911, 49.2496201
-124.0806520, 49.2496691
-124.0809095, 49.2496411
-124.0815210, 49.2498512
-124.0815318, 49.2501383
-124.0821755, 49.2501733
-124.0823364, 49.2507266
-124.0827227, 49.2508526
-124.0826690, 49.2510487
-124.0827441, 49.2512308
-124.0825832, 49.2512728
-124.0821218, 49.2513219
-124.0819716, 49.2515179
-124.0819287, 49.2518681
-124.0822721, 49.2518821
-124.0825295, 49.2520012
-124.0830553, 49.2522883
-124.0827227, 49.2526244
-124.0826797, 49.2527715
-124.0824866, 49.2530796
-124.0823901, 49.2530796
-124.0822721, 49.2528415
-124.0819287, 49.2528555
-124.0818751, 49.2532617
-124.0815854, 49.2534438
-124.0817249, 49.2536328
-124.0816498, 49.2538499
-124.0816820, 49.2540390
-124.0815103, 49.2541651
-124.0815103, 49.2542841
-124.0816283, 49.2543051
-124.0817893, 49.2544031
-124.0817893, 49.2546552
-124.0808344, 49.2549634
-124.0807486, 49.2547883
-124.0808237, 49.2546833
-124.0807807, 49.2545782
-124.0800619, 49.2545152
-124.0797400, 49.2551454
-124.0794718, 49.2550894
-124.0797400, 49.2544031
-124.0795577, 49.2543261
-124.0796435, 49.2541791
-124.0797830, 49.2542141
-124.0800726, 49.2535208
-124.0797400, 49.2533037
-124.0797079, 49.2530936
-124.0801156, 49.2530096
-124.0806091, 49.2529396
-124.0805876, 49.2525684
-124.0798581, 49.2525544
-124.0798473, 49.2524423
-124.0801263, 49.2524213
-124.0803516, 49.2524353
-124.0799761, 49.2520642
-124.0797615, 49.2520712
-124.0796435, 49.2505795
-124.0799439, 49.2505795
-124.0798903, 49.2508526
-124.0801907, 49.2509507
-124.0801156, 49.2507266
-124.0802979, 49.2505655
-124.0806413, 49.2501103
-124.0806627, 49.2499842
-124.0805018, 49.2498862

{
  "coordinates": [
    [
      [
        -124.0804589,
        49.2498722
      ],
      [
        -124.0804911,
        49.2496201
      ],
      [
        -124.080652,
        49.2496691
      ],
      [
        -124.0809095,
        49.2496411
      ],
      [
        -124.081521,
        49.2498512
      ],
      [
        -124.0815318,
        49.2501383
      ],
      [
        -124.0821755,
        49.2501733
      ],
      [
        -124.0823364,
        49.2507266
      ],
      [
        -124.0827227,
        49.2508526
      ],
      [
        -124.082669,
        49.2510487
      ],
      [
        -124.0827441,
        49.2512308
      ],
      [
        -124.0825832,
        49.2512728
      ],
      [
        -124.0821218,
        49.2513219
      ],
      [
        -124.0819716,
        49.2515179
      ],
      [
        -124.0819287,
        49.2518681
      ],
      [
        -124.0822721,
        49.2518821
      ],
      [
        -124.0825295,
        49.2520012
      ],
      [
        -124.0830553,
        49.2522883
      ],
      [
        -124.0827227,
        49.2526244
      ],
      [
        -124.0826797,
        49.2527715
      ],
      [
        -124.0824866,
        49.2530796
      ],
      [
        -124.0823901,
        49.2530796
      ],
      [
        -124.0822721,
        49.2528415
      ],
      [
        -124.0819287,
        49.2528555
      ],
      [
        -124.0818751,
        49.2532617
      ],
      [
        -124.0815854,
        49.2534438
      ],
      [
        -124.0817249,
        49.2536328
      ],
      [
        -124.0816498,
        49.2538499
      ],
      [
        -124.081682,
        49.254039
      ],
      [
        -124.0815103,
        49.2541651
      ],
      [
        -124.0815103,
        49.2542841
      ],
      [
        -124.0816283,
        49.2543051
      ],
      [
        -124.0817893,
        49.2544031
      ],
      [
        -124.0817893,
        49.2546552
      ],
      [
        -124.0808344,
        49.2549634
      ],
      [
        -124.0807486,
        49.2547883
      ],
      [
        -124.0808237,
        49.2546833
      ],
      [
        -124.0807807,
        49.2545782
      ],
      [
        -124.0800619,
        49.2545152
      ],
      [
        -124.07974,
        49.2551454
      ],
      [
        -124.0794718,
        49.2550894
      ],
      [
        -124.07974,
        49.2544031
      ],
      [
        -124.0795577,
        49.2543261
      ],
      [
        -124.0796435,
        49.2541791
      ],
      [
        -124.079783,
        49.2542141
      ],
      [
        -124.0800726,
        49.2535208
      ],
      [
        -124.07974,
        49.2533037
      ],
      [
        -124.0797079,
        49.2530936
      ],
      [
        -124.0801156,
        49.2530096
      ],
      [
        -124.0806091,
        49.2529396
      ],
      [
        -124.0805876,
        49.2525684
      ],
      [
        -124.0798581,
        49.2525544
      ],
      [
        -124.0798473,
        49.2524423
      ],
      [
        -124.0801263,
        49.2524213
      ],
      [
        -124.0803516,
        49.2524353
      ],
      [
        -124.0799761,
        49.2520642
      ],
      [
        -124.0797615,
        49.2520712
      ],
      [
        -124.0796435,
        49.2505795
      ],
      [
        -124.0799439,
        49.2505795
      ],
      [
        -124.0798903,
        49.2508526
      ],
      [
        -124.0801907,
        49.2509507
      ],
      [
        -124.0801156,
        49.2507266
      ],
      [
        -124.0802979,
        49.2505655
      ],
      [
        -124.0806413,
        49.2501103
      ],
      [
        -124.0806627,
        49.2499842
      ],
      [
        -124.0805018,
        49.2498862
      ]
    ]
  ],
  "type": "LineString"
}
